analysis
…
analysis

Emil Hvitfeldt

14 July, 2020

1000 genes that have high variability in tumor and normal

as.data.frame(gene_gsea_upper_right) %>%
  select(ID, Description) %>%
  as_tibble()

## # A tibble: 114 x 2
##    ID           Description                                                     
##    <chr>        <chr>                                                           
##  1 R-HSA-25595 DNA Damage/Telomere Stress Induced Senescence                   
##  2 R-HSA-25595 Cellular Senescence                                             
##  3 R-HSA-157579 Telomere Maintenance                                            
##  4 R-HSA-12216 Meiotic synapsis                                                
##  5 R-HSA-171306 Packaging Of Telomere Ends                                      
##  6 R-HSA-25595 Senescence-Associated Secretory Phenotype (SASP)                
##  7 R-HSA-110330 Recognition and association of DNA glycosylase with site contai
##  8 R-HSA-110331 Cleavage of the damaged purine                                  
##  9 R-HSA-73927  Depurination                                                    
## 10 R-HSA-73772  RNA Polymerase I Promoter Escape                                
## #  with 104 more rows
…
1000 genes that have low variability in tumor and normal

as.data.frame(gene_gsea_upper_left) %>%
  select(ID, Description) %>%
  as_tibble()

## # A tibble: 59 x 2
##    ID           Description                                                     
##    <chr>        <chr>                                                           
##  1 R-HSA-373076 Class A/1 (Rhodopsin-like receptors)                            
##  2 R-HSA-500792 GPCR ligand binding                                             
##  3 R-HSA-156902 Peptide chain elongation                                        
##  4 R-HSA-90105 Regulation of expression of SLITs and ROBOs                     
##  5 R-HSA-156842 Eukaryotic Translation Elongation                               
##  6 R-HSA-927802 Nonsense-Mediated Decay (NMD)                                   
##  7 R-HSA-975957 Nonsense Mediated Decay (NMD) enhanced by the Exon Junction Com
##  8 R-HSA-375276 Peptide ligand-binding receptors                                
##  9 R-HSA-25595 Senescence-Associated Secretory Phenotype (SASP)                
## 10 R-HSA-192823 Viral mRNA Translation                                          
## #  with 49 more rows
…
